EESchema Schematic File Version 4
EELAYER 30 0
EELAYER END
$Descr A4 11693 8268
encoding utf-8
Sheet 1 1
Title "MP-AA01"
Date "2020-09-11"
Rev "1.0.0"
Comp "MP Electronics"
Comment1 "Mono Audio Amplifier"
Comment2 ""
Comment3 ""
Comment4 ""
$EndDescr
$Comp
L Amplifier_Audio:LM386 U1
U 1 1 5EF4FE26
P 4800 3800
F 0 "U1" H 5144 3846 50  0000 L CNN
F 1 "LM386" H 5144 3755 50  0000 L CNN
F 2 "Package_DIP:DIP-8_W7.62mm_Socket" H 4900 3900 50  0001 C CNN
F 3 "http://www.ti.com/lit/ds/symlink/lm386.pdf" H 5000 4000 50  0001 C CNN
	1    4800 3800
	1    0    0    -1  
$EndComp
Wire Wire Line
	4500 3900 4350 3900
$Comp
L Device:Speaker LS1
U 1 1 5EF53A2D
P 6200 3800
F 0 "LS1" H 6370 3796 50  0000 L CNN
F 1 "Speaker" H 6370 3705 50  0000 L CNN
F 2 "MP:Wago_218-102" H 6200 3600 50  0001 C CNN
F 3 "~" H 6190 3750 50  0001 C CNN
	1    6200 3800
	1    0    0    -1  
$EndComp
$Comp
L power:GND #PWR09
U 1 1 5EF54A4C
P 6000 4500
F 0 "#PWR09" H 6000 4250 50  0001 C CNN
F 1 "GND" H 6005 4327 50  0000 C CNN
F 2 "" H 6000 4500 50  0001 C CNN
F 3 "" H 6000 4500 50  0001 C CNN
	1    6000 4500
	1    0    0    -1  
$EndComp
$Comp
L power:GND #PWR06
U 1 1 5EF55502
P 4700 4500
F 0 "#PWR06" H 4700 4250 50  0001 C CNN
F 1 "GND" H 4705 4327 50  0000 C CNN
F 2 "" H 4700 4500 50  0001 C CNN
F 3 "" H 4700 4500 50  0001 C CNN
	1    4700 4500
	1    0    0    -1  
$EndComp
Wire Wire Line
	4800 3000 4800 3500
$Comp
L Connector_Generic:Conn_01x02 J2
U 1 1 5EF6DA61
P 3000 1300
F 0 "J2" H 2918 1517 50  0000 C CNN
F 1 "DC" H 2918 1426 50  0000 C CNN
F 2 "MP:Wago_218-102" H 3000 1300 50  0001 C CNN
F 3 "~" H 3000 1300 50  0001 C CNN
	1    3000 1300
	-1   0    0    -1  
$EndComp
Wire Wire Line
	3200 1400 3300 1400
Wire Wire Line
	3300 1400 3300 1600
Wire Wire Line
	5100 1200 5100 1050
$Comp
L Device:D_Small_ALT D1
U 1 1 5EF6F12D
P 3550 1450
F 0 "D1" V 3504 1520 50  0000 L CNN
F 1 "1N4001" V 3595 1520 50  0000 L CNN
F 2 "Diode_THT:D_DO-41_SOD81_P7.62mm_Horizontal" V 3550 1450 50  0001 C CNN
F 3 "~" V 3550 1450 50  0001 C CNN
	1    3550 1450
	0    1    1    0   
$EndComp
Wire Wire Line
	3300 1600 3550 1600
Wire Wire Line
	4100 1600 4100 1550
Wire Wire Line
	3550 1600 3550 1850
Wire Wire Line
	4100 1300 4450 1300
Connection ~ 4100 1300
Connection ~ 3550 1600
Wire Wire Line
	3550 1600 4100 1600
Wire Wire Line
	4100 1600 4100 1850
Wire Wire Line
	3550 1600 3550 1550
Wire Wire Line
	3550 1350 3550 1300
Connection ~ 3550 1300
Wire Wire Line
	3550 1300 3750 1300
$Comp
L Device:CP1_Small C1
U 1 1 5EF7228E
P 4100 1450
F 0 "C1" H 4010 1496 50  0000 R CNN
F 1 "100uF" H 4010 1405 50  0000 R CNN
F 2 "Capacitor_THT:CP_Radial_D6.3mm_P2.50mm" H 4100 1450 50  0001 C CNN
F 3 "~" H 4100 1450 50  0001 C CNN
	1    4100 1450
	-1   0    0    -1  
$EndComp
Wire Wire Line
	4100 1350 4100 1300
$Comp
L power:GND #PWR010
U 1 1 5EF72A43
P 3550 1850
F 0 "#PWR010" H 3550 1600 50  0001 C CNN
F 1 "GND" H 3555 1677 50  0000 C CNN
F 2 "" H 3550 1850 50  0001 C CNN
F 3 "" H 3550 1850 50  0001 C CNN
	1    3550 1850
	1    0    0    -1  
$EndComp
$Comp
L power:GND #PWR011
U 1 1 5EF72C4C
P 4100 1850
F 0 "#PWR011" H 4100 1600 50  0001 C CNN
F 1 "GND" H 4105 1677 50  0000 C CNN
F 2 "" H 4100 1850 50  0001 C CNN
F 3 "" H 4100 1850 50  0001 C CNN
	1    4100 1850
	1    0    0    -1  
$EndComp
Connection ~ 4100 1600
Wire Wire Line
	3200 1300 3550 1300
$Comp
L Device:R_Small_US R2
U 1 1 5F4B272A
P 5100 1400
F 0 "R2" H 5168 1446 50  0000 L CNN
F 1 "4k" H 5168 1355 50  0000 L CNN
F 2 "Resistor_THT:R_Axial_DIN0207_L6.3mm_D2.5mm_P7.62mm_Horizontal" H 5100 1400 50  0001 C CNN
F 3 "~" H 5100 1400 50  0001 C CNN
	1    5100 1400
	1    0    0    -1  
$EndComp
Wire Wire Line
	4850 1200 5100 1200
$Comp
L power:GND #PWR0101
U 1 1 5F4B4342
P 5100 1900
F 0 "#PWR0101" H 5100 1650 50  0001 C CNN
F 1 "GND" H 5105 1727 50  0000 C CNN
F 2 "" H 5100 1900 50  0001 C CNN
F 3 "" H 5100 1900 50  0001 C CNN
	1    5100 1900
	1    0    0    -1  
$EndComp
Wire Wire Line
	5100 1900 5100 1800
Wire Wire Line
	5100 1300 5100 1200
Connection ~ 5100 1200
Text GLabel 4800 4100 3    50   Input ~ 0
GAIN_A
Text GLabel 4900 4100 3    50   Input ~ 0
GAIN_B
Wire Wire Line
	4700 2900 4700 3500
$Comp
L Device:LED_Small_ALT D2
U 1 1 5F4C3475
P 5100 1700
F 0 "D2" V 5146 1630 50  0000 R CNN
F 1 "BLUE" V 5055 1630 50  0000 R CNN
F 2 "LED_THT:LED_D3.0mm" V 5100 1700 50  0001 C CNN
F 3 "~" V 5100 1700 50  0001 C CNN
	1    5100 1700
	0    -1   -1   0   
$EndComp
Wire Wire Line
	5100 1600 5100 1500
$Comp
L power:VDC #PWR0102
U 1 1 5F4D42B6
P 5100 1050
F 0 "#PWR0102" H 5100 950 50  0001 C CNN
F 1 "VDC" H 5115 1223 50  0000 C CNN
F 2 "" H 5100 1050 50  0001 C CNN
F 3 "" H 5100 1050 50  0001 C CNN
	1    5100 1050
	1    0    0    -1  
$EndComp
$Comp
L power:VDC #PWR0103
U 1 1 5F4D47F8
P 4700 2900
F 0 "#PWR0103" H 4700 2800 50  0001 C CNN
F 1 "VDC" H 4715 3073 50  0000 C CNN
F 2 "" H 4700 2900 50  0001 C CNN
F 3 "" H 4700 2900 50  0001 C CNN
	1    4700 2900
	1    0    0    -1  
$EndComp
$Comp
L power:GND #PWR0105
U 1 1 5F4F2150
P 5250 4500
F 0 "#PWR0105" H 5250 4250 50  0001 C CNN
F 1 "GND" H 5255 4327 50  0000 C CNN
F 2 "" H 5250 4500 50  0001 C CNN
F 3 "" H 5250 4500 50  0001 C CNN
	1    5250 4500
	1    0    0    -1  
$EndComp
Wire Wire Line
	5250 4450 5250 4500
Wire Wire Line
	5100 3800 5250 3800
Wire Wire Line
	6000 3900 6000 4500
Wire Wire Line
	5250 4250 5250 4150
Wire Wire Line
	5250 3950 5250 3800
Connection ~ 5250 3800
Wire Wire Line
	4700 4100 4700 4500
Wire Wire Line
	4700 5500 4700 5700
Text GLabel 4700 5200 1    50   Input ~ 0
GAIN_A
Wire Wire Line
	4700 5200 4700 5300
$Comp
L power:GND #PWR07
U 1 1 5EF6BCB5
P 5250 3400
F 0 "#PWR07" H 5250 3150 50  0001 C CNN
F 1 "GND" H 5255 3227 50  0000 C CNN
F 2 "" H 5250 3400 50  0001 C CNN
F 3 "" H 5250 3400 50  0001 C CNN
	1    5250 3400
	-1   0    0    -1  
$EndComp
$Comp
L Device:CP1_Small C4
U 1 1 5EF6BCBB
P 5250 3200
F 0 "C4" H 5160 3246 50  0000 R CNN
F 1 "10uF" H 5160 3155 50  0000 R CNN
F 2 "Capacitor_THT:CP_Radial_D5.0mm_P2.50mm" H 5250 3200 50  0001 C CNN
F 3 "~" H 5250 3200 50  0001 C CNN
	1    5250 3200
	-1   0    0    -1  
$EndComp
Wire Wire Line
	5250 3100 5250 3000
Wire Wire Line
	5250 3400 5250 3300
Wire Wire Line
	4800 3000 5250 3000
$Comp
L Device:R_POT GAIN1
U 1 1 5F4B7D3C
P 5250 5450
F 0 "GAIN1" H 5181 5496 50  0000 R CNN
F 1 "10k A" H 5181 5405 50  0000 R CNN
F 2 "MP:Potentiometers_ALPHA_RV16AF-41" H 5250 5450 50  0001 C CNN
F 3 "~" H 5250 5450 50  0001 C CNN
	1    5250 5450
	1    0    0    -1  
$EndComp
Wire Wire Line
	5250 5700 5250 5600
Wire Wire Line
	5250 5700 5500 5700
Wire Wire Line
	5500 5700 5500 5450
Wire Wire Line
	5500 5450 5400 5450
Connection ~ 5250 5700
Text GLabel 5250 5200 1    50   Input ~ 0
GAIN_B
Wire Wire Line
	5250 5300 5250 5200
Wire Wire Line
	4700 5700 5250 5700
$Comp
L Device:R_Small_US R5
U 1 1 5F4F22D4
P 5250 4350
F 0 "R5" H 5182 4304 50  0000 R CNN
F 1 "10R" H 5182 4395 50  0000 R CNN
F 2 "Resistor_THT:R_Axial_DIN0207_L6.3mm_D2.5mm_P7.62mm_Horizontal" H 5250 4350 50  0001 C CNN
F 3 "~" H 5250 4350 50  0001 C CNN
	1    5250 4350
	-1   0    0    1   
$EndComp
$Comp
L Device:CP1_Small C7
U 1 1 5F4C58E5
P 5650 3800
F 0 "C7" V 5422 3800 50  0000 C CNN
F 1 "220uF" V 5513 3800 50  0000 C CNN
F 2 "Capacitor_THT:CP_Radial_D6.3mm_P2.50mm" H 5650 3800 50  0001 C CNN
F 3 "~" H 5650 3800 50  0001 C CNN
	1    5650 3800
	0    -1   1    0   
$EndComp
$Comp
L Device:CP1_Small C5
U 1 1 5F4B8D46
P 4700 5400
F 0 "C5" H 4610 5446 50  0000 R CNN
F 1 "10uF" H 4610 5355 50  0000 R CNN
F 2 "Capacitor_THT:CP_Radial_D5.0mm_P2.50mm" H 4700 5400 50  0001 C CNN
F 3 "~" H 4700 5400 50  0001 C CNN
	1    4700 5400
	1    0    0    -1  
$EndComp
$Comp
L Device:R_Small_US R1
U 1 1 5F50C608
P 3850 1300
F 0 "R1" V 3645 1300 50  0000 C CNN
F 1 "47R" V 3736 1300 50  0000 C CNN
F 2 "Resistor_THT:R_Axial_DIN0207_L6.3mm_D2.5mm_P7.62mm_Horizontal" H 3850 1300 50  0001 C CNN
F 3 "~" H 3850 1300 50  0001 C CNN
	1    3850 1300
	0    1    1    0   
$EndComp
Wire Wire Line
	3950 1300 4100 1300
$Comp
L mp_symbols:SW_SPDT_ON-OFF SW1
U 1 1 5F543D31
P 4650 1300
F 0 "SW1" H 4650 1585 50  0000 C CNN
F 1 "ON/OFF" H 4650 1494 50  0000 C CNN
F 2 "MP:M2011S3A1W01" H 4650 1300 50  0001 C CNN
F 3 "~" H 4650 1300 50  0001 C CNN
	1    4650 1300
	1    0    0    -1  
$EndComp
$Comp
L mp_symbols:BananaJack J1
U 1 1 5F4F501D
P 2550 3700
F 0 "J1" V 2765 3642 50  0000 C CNN
F 1 "Input" V 2674 3642 50  0000 C CNN
F 2 "MP:Wago_218-102" H 2750 3900 60  0001 L CNN
F 3 "" H 2750 4000 60  0001 L CNN
F 4 "Connectors, Interconnects" H 2750 4300 60  0001 L CNN "Category"
F 5 "Banana and Tip Connectors - Jacks, Plugs" H 2750 4400 60  0001 L CNN "Family"
	1    2550 3700
	0    -1   -1   0   
$EndComp
$Comp
L mp_symbols:BananaJack J1
U 2 1 5F4F57C0
P 2550 4550
F 0 "J1" V 2765 4492 50  0000 C CNN
F 1 "Input" V 2674 4492 50  0000 C CNN
F 2 "MP:Wago_218-102" H 2750 4750 60  0001 L CNN
F 3 "" H 2750 4850 60  0001 L CNN
F 4 "Connectors, Interconnects" H 2750 5150 60  0001 L CNN "Category"
F 5 "Banana and Tip Connectors - Jacks, Plugs" H 2750 5250 60  0001 L CNN "Family"
	2    2550 4550
	0    -1   -1   0   
$EndComp
Text Label 2700 3700 0    50   ~ 0
RED
Text Label 2700 4550 0    50   ~ 0
BLACK
Wire Wire Line
	4350 3900 4350 4550
$Comp
L Device:C_Small C3
U 1 1 5F503A29
P 4000 4550
F 0 "C3" V 3771 4550 50  0000 C CNN
F 1 "100nF" V 3862 4550 50  0000 C CNN
F 2 "Capacitor_THT:C_Rect_L7.2mm_W2.5mm_P5.00mm_FKS2_FKP2_MKS2_MKP2" H 4000 4550 50  0001 C CNN
F 3 "~" H 4000 4550 50  0001 C CNN
	1    4000 4550
	0    1    1    0   
$EndComp
$Comp
L Device:C_Small C2
U 1 1 5F4F2FC1
P 4000 3700
F 0 "C2" V 3771 3700 50  0000 C CNN
F 1 "100nF" V 3862 3700 50  0000 C CNN
F 2 "Capacitor_THT:C_Rect_L7.2mm_W2.5mm_P5.00mm_FKS2_FKP2_MKS2_MKP2" H 4000 3700 50  0001 C CNN
F 3 "~" H 4000 3700 50  0001 C CNN
	1    4000 3700
	0    1    1    0   
$EndComp
Wire Wire Line
	4100 4550 4200 4550
Wire Wire Line
	4100 3700 4200 3700
Wire Wire Line
	3500 4550 3900 4550
Wire Wire Line
	5250 3800 5550 3800
Wire Wire Line
	5750 3800 6000 3800
Wire Wire Line
	2700 4550 3000 4550
Connection ~ 3500 4550
Wire Wire Line
	2700 3700 3000 3700
$Comp
L Device:R_Small_US R3
U 1 1 5F4F8134
P 3100 3700
F 0 "R3" V 3305 3700 50  0000 C CNN
F 1 "10K" V 3214 3700 50  0000 C CNN
F 2 "Resistor_THT:R_Axial_DIN0207_L6.3mm_D2.5mm_P7.62mm_Horizontal" H 3100 3700 50  0001 C CNN
F 3 "~" H 3100 3700 50  0001 C CNN
	1    3100 3700
	0    -1   -1   0   
$EndComp
Wire Wire Line
	3200 3700 3500 3700
$Comp
L Device:R_Small_US R4
U 1 1 5F4F8963
P 3100 4550
F 0 "R4" V 3305 4550 50  0000 C CNN
F 1 "10K" V 3214 4550 50  0000 C CNN
F 2 "Resistor_THT:R_Axial_DIN0207_L6.3mm_D2.5mm_P7.62mm_Horizontal" H 3100 4550 50  0001 C CNN
F 3 "~" H 3100 4550 50  0001 C CNN
	1    3100 4550
	0    -1   -1   0   
$EndComp
Wire Wire Line
	3200 4550 3500 4550
Wire Wire Line
	3500 3700 3500 3950
Wire Wire Line
	3500 3700 3800 3700
Connection ~ 3500 3700
Wire Wire Line
	3500 4250 3500 4550
Wire Wire Line
	3650 4100 3800 4100
Wire Wire Line
	3800 4100 3800 3700
Connection ~ 3800 3700
Wire Wire Line
	3800 3700 3900 3700
$Comp
L power:GND #PWR0104
U 1 1 5F513556
P 3500 5250
F 0 "#PWR0104" H 3500 5000 50  0001 C CNN
F 1 "GND" H 3505 5077 50  0000 C CNN
F 2 "" H 3500 5250 50  0001 C CNN
F 3 "" H 3500 5250 50  0001 C CNN
	1    3500 5250
	1    0    0    -1  
$EndComp
$Comp
L Jumper:Jumper_2_Open JP1
U 1 1 5F514301
P 3500 4900
F 0 "JP1" V 3546 4812 50  0000 R CNN
F 1 "Common Ground" V 3455 4812 50  0000 R CNN
F 2 "MP:PinHeader_1x02_P2.54mm_Vertical" H 3500 4900 50  0001 C CNN
F 3 "~" H 3500 4900 50  0001 C CNN
	1    3500 4900
	0    -1   -1   0   
$EndComp
Wire Wire Line
	3500 5250 3500 5100
Wire Wire Line
	3500 4700 3500 4550
$Comp
L Device:R_POT LEVEL1
U 1 1 5EF5C1A8
P 3500 4100
F 0 "LEVEL1" H 3430 4146 50  0000 R CNN
F 1 " 10k A" H 3430 4055 50  0000 R CNN
F 2 "MP:Potentiometers_ALPHA_RV16AF-41" H 3500 4100 50  0001 C CNN
F 3 "~" H 3500 4100 50  0001 C CNN
	1    3500 4100
	1    0    0    1   
$EndComp
$Comp
L Device:C_Small C8
U 1 1 5F4FD716
P 4200 4050
F 0 "C8" H 4291 4004 50  0000 L CNN
F 1 "47pF" H 4291 4095 50  0000 L CNN
F 2 "Capacitor_THT:C_Disc_D4.7mm_W2.5mm_P5.00mm" H 4200 4050 50  0001 C CNN
F 3 "~" H 4200 4050 50  0001 C CNN
	1    4200 4050
	-1   0    0    1   
$EndComp
Wire Wire Line
	4200 3950 4200 3700
Connection ~ 4200 3700
Wire Wire Line
	4200 3700 4500 3700
Wire Wire Line
	4200 4150 4200 4550
Connection ~ 4200 4550
Wire Wire Line
	4200 4550 4350 4550
$Comp
L Device:C_Small C6
U 1 1 5F4F33B3
P 5250 4050
F 0 "C6" H 5158 4004 50  0000 R CNN
F 1 "47nF" H 5158 4095 50  0000 R CNN
F 2 "Capacitor_THT:C_Rect_L7.2mm_W2.5mm_P5.00mm_FKS2_FKP2_MKS2_MKP2" H 5250 4050 50  0001 C CNN
F 3 "~" H 5250 4050 50  0001 C CNN
	1    5250 4050
	-1   0    0    1   
$EndComp
$EndSCHEMATC
