%TF.GenerationSoftware,KiCad,Pcbnew,5.1.6-c6e7f7d~87~ubuntu18.04.1*%
%TF.CreationDate,2020-09-24T20:34:54+02:00*%
%TF.ProjectId,MP-AA01,4d502d41-4130-4312-9e6b-696361645f70,1.0.1*%
%TF.SameCoordinates,PX42c1d80PY4ead9a0*%
%TF.FileFunction,Soldermask,Top*%
%TF.FilePolarity,Negative*%
%FSLAX46Y46*%
G04 Gerber Fmt 4.6, Leading zero omitted, Abs format (unit mm)*
G04 Created by KiCad (PCBNEW 5.1.6-c6e7f7d~87~ubuntu18.04.1) date 2020-09-24 20:34:54*
%MOMM*%
%LPD*%
G01*
G04 APERTURE LIST*
%ADD10C,3.300000*%
%ADD11C,1.900000*%
%ADD12R,1.900000X1.900000*%
%ADD13C,1.700000*%
%ADD14R,1.700000X1.700000*%
%ADD15O,1.800000X1.800000*%
%ADD16R,1.800000X1.800000*%
%ADD17O,1.700000X1.700000*%
%ADD18R,3.800000X3.800000*%
%ADD19C,3.800000*%
%ADD20O,2.300000X2.300000*%
%ADD21R,2.300000X2.300000*%
%ADD22C,0.100000*%
G04 APERTURE END LIST*
D10*
%TO.C,SW1*%
X5500000Y-35450000D03*
X5500000Y-30750000D03*
%TD*%
D11*
%TO.C,LS1*%
X24000000Y-800000D03*
D12*
X26500000Y-800000D03*
D11*
X24000000Y-5800000D03*
D12*
X26500000Y-5800000D03*
%TD*%
D11*
%TO.C,J2*%
X2000000Y-800000D03*
D12*
X4500000Y-800000D03*
D11*
X2000000Y-5800000D03*
D12*
X4500000Y-5800000D03*
%TD*%
D11*
%TO.C,J1*%
X16750000Y-800000D03*
D12*
X19250000Y-800000D03*
D11*
X16750000Y-5800000D03*
D12*
X19250000Y-5800000D03*
%TD*%
D13*
%TO.C,C7*%
X21750000Y-16500000D03*
D14*
X19250000Y-16500000D03*
%TD*%
D13*
%TO.C,C8*%
X8550000Y-30000000D03*
X8550000Y-35000000D03*
%TD*%
%TO.C,C6*%
X17000000Y-30000000D03*
X17000000Y-25000000D03*
%TD*%
%TO.C,C3*%
X500000Y-25000000D03*
X500000Y-30000000D03*
%TD*%
%TO.C,C2*%
X14000000Y-25000000D03*
X14000000Y-30000000D03*
%TD*%
D15*
%TO.C,JP1*%
X1460000Y-14950000D03*
D16*
X4000000Y-14950000D03*
%TD*%
D17*
%TO.C,R4*%
X3005000Y-18250000D03*
D13*
X10625000Y-18250000D03*
%TD*%
D17*
%TO.C,R3*%
X13975000Y-22595000D03*
D13*
X13975000Y-14975000D03*
%TD*%
D17*
%TO.C,U1*%
X19250000Y-40620000D03*
X11630000Y-33000000D03*
X16710000Y-40620000D03*
X14170000Y-33000000D03*
X14170000Y-40620000D03*
X16710000Y-33000000D03*
X11630000Y-40620000D03*
D14*
X19250000Y-33000000D03*
%TD*%
D13*
%TO.C,R5*%
X29500000Y-10500000D03*
D17*
X29500000Y-18120000D03*
%TD*%
%TO.C,R2*%
X28000000Y-24380000D03*
D13*
X28000000Y-32000000D03*
%TD*%
D17*
%TO.C,R1*%
X11750000Y120000D03*
D13*
X11750000Y-7500000D03*
%TD*%
D18*
%TO.C,LEVEL1*%
X10500000Y-21410000D03*
D19*
X5500000Y-21410000D03*
X500000Y-21410000D03*
%TD*%
D18*
%TO.C,GAIN1*%
X28035241Y-21410000D03*
D19*
X23035241Y-21410000D03*
X18035241Y-21410000D03*
%TD*%
D11*
%TO.C,D2*%
X24290000Y-30750000D03*
D12*
X21750000Y-30750000D03*
%TD*%
D20*
%TO.C,D1*%
X8500000Y-7620000D03*
D21*
X8500000Y0D03*
%TD*%
D13*
%TO.C,C5*%
X21750000Y-24750000D03*
D14*
X21750000Y-27250000D03*
%TD*%
D13*
%TO.C,C4*%
X25767767Y-34732233D03*
D22*
G36*
X24000000Y-37702082D02*
G01*
X22797918Y-36500000D01*
X24000000Y-35297918D01*
X25202082Y-36500000D01*
X24000000Y-37702082D01*
G37*
%TD*%
D13*
%TO.C,C1*%
X8482233Y-11607233D03*
D22*
G36*
X11452082Y-13375000D02*
G01*
X10250000Y-14577082D01*
X9047918Y-13375000D01*
X10250000Y-12172918D01*
X11452082Y-13375000D01*
G37*
%TD*%
M02*
